<?xml version="1.0" encoding="UTF-8"?>
<svg width="445px" height="516px" viewBox="0 0 445 516" version="1.1" xmlns="http://www.w3.org/2000/svg" xmlns:xlink="http://www.w3.org/1999/xlink">
    <!-- Generator: Sketch 52 (66869) - http://www.bohemiancoding.com/sketch -->
    <title>tri-left-1</title>
    <desc>Created with Sketch.</desc>
    <g id="Designs" stroke="none" stroke-width="1" fill="none" fill-rule="evenodd">
        <g id="0.0-Home" transform="translate(0.000000, -137.000000)">
            <g id="Group-270" transform="translate(-82.000000, -229.000000)">
                <g id="tri-left-1" transform="translate(0.000000, 366.000000)">
                    <polygon id="Fill-30" fill-opacity="0.5" fill="#57ADCD" points="442.476463 0 400 74 485 74 442.528493 0"></polygon>
                    <polygon id="Fill-49" fill-opacity="0.8" fill="#EE5031" points="485 73 442.506194 147 400 73"></polygon>
                    <polygon id="Fill-53" fill-opacity="0.5" fill="#50BFC4" points="442 146.99751 484.498761 73 527 147"></polygon>
                    <polygon id="Fill-137" fill-opacity="0.5" fill="#F8F9FA" points="168 442 125.498761 516 83 442"></polygon>
                    <polygon id="Triangle-Copy-2" fill-opacity="0.8" fill="#57ADCD" fill-rule="nonzero" points="84.3173828 293 168.503906 441.589844 0 441.589844"></polygon>
                </g>
            </g>
        </g>
    </g>
</svg>