<?xml version="1.0" encoding="UTF-8"?>
<svg width="213px" height="223px" viewBox="0 0 213 223" version="1.1" xmlns="http://www.w3.org/2000/svg" xmlns:xlink="http://www.w3.org/1999/xlink">
    <!-- Generator: Sketch 52.6 (67491) - http://www.bohemiancoding.com/sketch -->
    <title>Group 2</title>
    <desc>Created with Sketch.</desc>
    <g id="Designs" stroke="none" stroke-width="1" fill="none" fill-rule="evenodd">
        <g id="0.0-Home" transform="translate(-1387.000000, -352.000000)">
            <g id="Group-2" transform="translate(1387.000000, 352.000000)">
                <polygon id="Fill-79" fill-opacity="0.35" fill="#F8F9FA" points="84 73.9950192 126.498761 0 169 74"></polygon>
                <polygon id="Fill-93" fill-opacity="0.35" fill="#57ADCD" points="212.542617 74 168 74 211.273646 149.292067 212.542617 147.09004"></polygon>
                <polygon id="Fill-110" fill-opacity="0.35" fill="#F8F9FA" points="211 149 168.502478 223 126 149"></polygon>
                <polygon id="Triangle" fill-opacity="0.8" fill="#EE5031" fill-rule="nonzero" points="84.3173828 74 168.503906 222.589844 9.9475983e-14 222.589844"></polygon>
            </g>
        </g>
    </g>
</svg>