<?xml version="1.0" encoding="UTF-8"?>
<svg width="128px" height="221px" viewBox="0 0 128 221" version="1.1" xmlns="http://www.w3.org/2000/svg" xmlns:xlink="http://www.w3.org/1999/xlink">
    <!-- Generator: Sketch 52 (66869) - http://www.bohemiancoding.com/sketch -->
    <title>tri-left-3</title>
    <desc>Created with Sketch.</desc>
    <g id="Designs" stroke="none" stroke-width="1" fill="none" fill-rule="evenodd">
        <g id="0.0-Home" transform="translate(-86.000000, -137.000000)">
            <g id="Group-270" transform="translate(-82.000000, -229.000000)">
                <g id="tri-left-3" transform="translate(168.000000, 366.000000)">
                    <polygon id="Fill-26" fill-opacity="0.3" fill="#57ADCD" points="43 0 85.5012395 74 128 0"></polygon>
                    <polygon id="Fill-45" fill-opacity="0.6" fill="#F8F9FA" points="85 73 42.5024777 147 0 73"></polygon>
                    <polygon id="Fill-60" fill-opacity="0.4" fill="#EE5031" points="0 221 42.5 147 85 221"></polygon>
                </g>
            </g>
        </g>
    </g>
</svg>