<?xml version="1.0" encoding="UTF-8"?>
<svg width="169px" height="223px" viewBox="0 0 169 223" version="1.1" xmlns="http://www.w3.org/2000/svg" xmlns:xlink="http://www.w3.org/1999/xlink">
    <!-- Generator: Sketch 61.2 (89653) - https://sketch.com -->
    <title>tri-left-1</title>
    <desc>Created with Sketch.</desc>
    <g id="Page-1" stroke="none" stroke-width="1" fill="none" fill-rule="evenodd">
        <g id="tri-left-1" fill-rule="nonzero">
            <polygon id="Fill-137" fill-opacity="0.5" fill="#F8F9FA" points="168 149 125.498761 223 83 149"></polygon>
            <polygon id="Triangle-Copy-2" fill-opacity="0.8" fill="#57ADCD" points="84.3173828 0 168.503906 148.589844 0 148.589844"></polygon>
        </g>
    </g>
</svg>